mistag rate,b jet efficiency,thresholds
0.9931909014993487,0.999974139446998,0.0
0.9545494221510483,0.9996155397787027,0.005025125628140704
0.9147292202905225,0.9988086905250382,0.010050251256281407
0.8743612389301461,0.9975535916860047,0.01507537688442211
0.8350125260745104,0.9961329853077578,0.020100502512562814
0.797332581883413,0.9944951502842937,0.02512562814070352
0.7611798221950357,0.9927366326801532,0.03015075376884422
0.72622365486455,0.9908729488271377,0.035175879396984924
0.693253102308303,0.9889092708358476,0.04020100502512563
0.6621795025997189,0.9870007620242951,0.04522613065326633
0.6334420415611373,0.9850094994431361,0.05025125628140704
0.606910131858842,0.9830234089725775,0.05527638190954774
0.5822057575268134,0.9810424906126193,0.06030150753768844
0.5592546899753602,0.9790322636259253,0.06532663316582915
0.5380287498324702,0.9770582414134343,0.07035175879396985
0.5178646909032176,0.9751807652654845,0.07537688442211056
0.4988195592333836,0.9733084612281349,0.08040201005025126
0.480655548415254,0.9712309968036357,0.08542713567839195
0.4638090950641424,0.9693035235865484,0.09045226130653267
0.44791936575793917,0.9673657061482602,0.09547738693467336
0.43295818112463186,0.9653985800832365,0.10050251256281408
0.41894409831164325,0.9636176499998276,0.10552763819095477
0.40559119978831104,0.9617918949578818,0.11055276381909548
0.39307268559724806,0.9599023505518642,0.11557788944723618
0.3808125968665913,0.9580765955099184,0.12060301507537688
0.36908104318660584,0.9561318819241631,0.12562814070351758
0.35775568484465264,0.9543509518407541,0.1306532663316583
0.34692312186203794,0.9524941641352058,0.135678391959799
0.33661909393009454,0.9506977177199957,0.1407035175879397
0.327011302677384,0.9488909270835848,0.1457286432160804
0.31801452268611274,0.947099652778975,0.15075376884422112
0.30959095235967876,0.9454497494974432,0.15577889447236182
0.30183681394397804,0.9438446711744484,0.16080402010050251
0.29456447405951347,0.9423895840588655,0.1658291457286432
0.2875230675651992,0.9409982863073544,0.1708542713567839
0.2808342468719179,0.9396035404821097,0.17587939698492464
0.27453993738681,0.9381863821775965,0.18090452261306533
0.26839133587405883,0.9368295651634214,0.18592964824120603
0.26238912963542077,0.9354193030063754,0.19095477386934673
0.25654087899021627,0.9340228331442639,0.19597989949748745
0.2509771712721612,0.9327142891623594,0.20100502512562815
0.24569731917949916,0.9313143712265143,0.20603015075376885
0.2404923829782847,0.9300575483506139,0.21105527638190955
0.23542559443010658,0.9286128054562319,0.21608040201005024
0.23050451385428516,0.9273783950596,0.22110552763819097
0.22563291900492452,0.9260250261191585,0.22613065326633167
0.2210843559810717,0.9247750993907253,0.23115577889447236
0.21656878344152608,0.9234906919249561,0.23618090452261306
0.2119824188210713,0.9221269787633138,0.24120603015075376
0.20757681456254962,0.9208356751500774,0.24623115577889448
0.20333822463083304,0.9194719619884352,0.25125628140703515
0.19915599344314125,0.9180651479051228,0.2562814070351759
0.19499438130814142,0.9166859184116793,0.2613065326633166
0.19099497238765192,0.9152808283652337,0.2663316582914573
0.18711790317980156,0.9138429816183189,0.271356783919598
0.18334736574419316,0.9124827165304102,0.2763819095477387
0.1796757997615063,0.9111034870369668,0.2814070351758794
0.17610595443876656,0.9097587382808594,0.2864321608040201
0.17266325994096077,0.9084553664095553,0.2914572864321608
0.1693676480190245,0.9071313060958496,0.2964824120603015
0.1661668837394714,0.9059037918466849,0.30150753768844224
0.16319361634128657,0.9046435208970509,0.3065326633165829
0.16020522830446093,0.9034125585741526,0.31155778894472363
0.1574326530191448,0.9021212549609161,0.3165829145728643
0.1547370555305454,0.9008954647486181,0.32160804020100503
0.15211087551934238,0.8997593244533941,0.32663316582914576
0.14954517806270254,0.8986421485637048,0.3316582914572864
0.14705164729048464,0.8974749756048783,0.33668341708542715
0.1447045117923799,0.8963750400838572,0.3417085427135678
0.14246596997178626,0.8952699324522355,0.34673366834170855
0.14020062338269307,0.8941751690418148,0.35175879396984927
0.1379799514077658,0.8930528210415252,0.35678391959798994
0.13579708102944058,0.8920546036956454,0.36180904522613067
0.13359702810720533,0.8909581162483579,0.36683417085427134
0.13149113552559683,0.8898685249485375,0.37185929648241206
0.12939349056506513,0.8887323846533134,0.3768844221105528
0.12730684243263585,0.8876824462014296,0.38190954773869346
0.12523806414587293,0.8865256174638039,0.3869346733668342
0.12324213984528838,0.8853912012054466,0.3919597989949749
0.12120978855161464,0.8842585089839561,0.3969849246231156
0.11915681820524893,0.8830447870297259,0.4020100502512563
0.1170935383325372,0.8818983025133009,0.40703517587939697
0.1150007044843003,0.8807363016650748,0.4120603015075377
0.11304258178031774,0.8794743066785741,0.4170854271356784
0.11104322097095119,0.8782795491298786,0.4221105527638191
0.10909678239682742,0.8770847915811831,0.4271356783919598
0.10712078984717846,0.8759400311016251,0.4321608040201005
0.10520184334331066,0.8747349293317288,0.4371859296482412
0.10326708889904568,0.8735660323360355,0.44221105527638194
0.10131446460911431,0.8723747228610736,0.4472361809045226
0.09947799431601448,0.8711937576073127,0.45226130653266333
0.09758928908942827,0.8699593472106808,0.457286432160804
0.09576175371916162,0.868731832961516,0.4623115577889447
0.09394933898753578,0.8675543157814887,0.46733668341708545
0.09221802586316509,0.8663112852005227,0.4723618090452261
0.09051351750729399,0.8650682546195568,0.47738693467336685
0.08887980123233205,0.8638821172551954,0.4824120603015075
0.08725639448371611,0.8627425288862377,0.48743718592964824
0.08569347028966333,0.8615374271163414,0.49246231155778897
0.08414841594127694,0.86035128975198,0.49748743718592964
0.08259373936830096,0.8592772147839609,0.5025125628140703
0.08113597234297733,0.8581117658620012,0.507537688442211
0.07974693549329365,0.8569290765713734,0.5125628140703518
0.07840944627533995,0.8557515593913461,0.5175879396984925
0.07708295388548865,0.8546740363495933,0.5226130653266332
0.07583000278357212,0.8535172076119676,0.5276381909547738
0.07456261834477118,0.8524465807176821,0.5326633165829145
0.07331997676920063,0.8513725057496629,0.5376884422110553
0.07208420821119409,0.8503363595927135,0.542713567839196
0.07097284127109586,0.8492140115924239,0.5477386934673367
0.06974738223943532,0.8481347645138043,0.5527638190954774
0.0686181454536707,0.8470003482554471,0.5577889447236181
0.06745866739062452,0.8459400655823625,0.5628140703517588
0.06629644012055273,0.8448677146512101,0.5678391959798995
0.06524830494204328,0.8438281204205271,0.5728643216080402
0.06411769355276588,0.8426868080147026,0.577889447236181
0.06301045042320606,0.84165238589462,0.5829145728643216
0.061934135872684225,0.8404834888989267,0.5879396984924623
0.060811772104483616,0.8393214880507005,0.592964824120603
0.05961655435010464,0.8381319026126055,0.5979899497487438
0.05848663026258363,0.83693714506391,0.6030150753768845
0.057279041076589474,0.8357751442156839,0.6080402010050251
0.05614224397150447,0.834461428123179,0.6130653266331658
0.05506249291220064,0.8331511601044077,0.6180904522613065
0.05395387517912802,0.8319684708137799,0.6231155778894473
0.052905740000618574,0.8306237220576724,0.628140703517588
0.051840422278199134,0.8293324184444361,0.6331658291457286
0.05081702996292007,0.8278825034394536,0.6381909547738693
0.049746213826449434,0.8266256805635531,0.6432160804020101
0.04869464213915799,0.8252309347383084,0.6482412060301508
0.04766231490104573,0.8238792898347338,0.6532663316582915
0.04665198131913826,0.8225655737422289,0.6582914572864321
0.04565401916884598,0.8211880682856523,0.6633165829145728
0.04458938874818295,0.8198605598982128,0.6683417085427136
0.04361410755585186,0.8185951168379785,0.6733668341708543
0.042619581914341585,0.8172003710127337,0.678391959798995
0.04170684518184286,0.8158194174824235,0.6834170854271356
0.04079548305285694,0.814369502477441,0.6884422110552764
0.039879309811576225,0.8129247595830589,0.6934673366834171
0.038979631812449095,0.8114886368730109,0.6984924623115578
0.03806139666589918,0.8100007930569587,0.7035175879396985
0.03714797263164406,0.8084250233606995,0.7085427135678392
0.036281285116824116,0.8069320074340469,0.7135678391959799
0.03541047379146577,0.8054165790281259,0.7185929648241206
0.03452522912922304,0.8039270111752069,0.7236180904522613
0.0336571670108903,0.8023684818476158,0.7286432160804021
0.03279941441890355,0.8007858160038894,0.7336683417085427
0.03192516658476321,0.7991893578652286,0.7386934673366834
0.03102273937861048,0.7976894457911088,0.7437185929648241
0.030162924881354535,0.7961653972008538,0.7487437185929648
0.02930104847882939,0.7944775651082523,0.7537688442211056
0.02844192128332984,0.7929017954119931,0.7587939698492463
0.02762334489145787,0.7912415479092605,0.7638190954773869
0.026765592299471123,0.7895692321484603,0.7688442211055276
0.02590715240572797,0.7878641596871907,0.7738693467336684
0.0250940744279072,0.786231496774327,0.7788944723618091
0.02424388215524085,0.7843971215480472,0.7839195979899498
0.023428742272150877,0.7825765386167017,0.7889447236180904
0.02260260556095851,0.7808094008282274,0.7939698492462312
0.021821830765688523,0.7788267584314023,0.7989949748743719
0.021052740100277325,0.7768630804401121,0.8040201005025126
0.02031732722092971,0.7748994024488219,0.8090452261306533
0.019556484176595314,0.7728564187616588,0.8140703517587939
0.018797703037530113,0.7708048148901616,0.8190954773869347
0.0180602282529133,0.7687014899126603,0.8241206030150754
0.017345434426257675,0.7664757583176158,0.8291457286432161
0.01665332155756324,0.764289679570508,0.8341708542713568
0.016034749976803566,0.762112221007734,0.8391959798994975
0.01545672919967147,0.759758910684546,0.8442211055276382
0.014863587783898582,0.7574021522876245,0.8492462311557789
0.014284192403253687,0.7550281535220349,0.8542713567839196
0.01370823353139079,0.752700703751849,0.8592964824120604
0.013134336564797091,0.7502870521383229,0.864321608040201
0.012580371349138983,0.7478785726353973,0.8693467336683417
0.012055960109006059,0.7452511404503874,0.8743718592964824
0.011493059970514755,0.7424944055003673,0.8793969849246231
0.010928097926754253,0.7397169821079453,0.8844221105527639
0.010392002556762535,0.7367499146601751,0.8894472361809045
0.009855219885014416,0.7336432002261937,0.8944723618090452
0.009305378479894705,0.7303589099949314,0.8994974874371859
0.008776843429223384,0.7270022102152632,0.9045226130653267
0.008270989336513249,0.723188640665892,0.9095477386934674
0.0077328320612523324,0.7193405903791846,0.914572864321608
0.007246909719477788,0.715221866304389,0.9195979899497487
0.00676717309351084,0.7106583407179579,0.9246231155778895
0.006245511060403515,0.7059051710761783,0.9296482412060302
0.00577883316780816,0.7006227221162897,0.9346733668341709
0.00528466320495682,0.6947937534696242,0.9396984924623115
0.004770561491169891,0.6884941227583211,0.9447236180904522
0.00431488042667693,0.6816186637335053,0.949748743718593
0.0038399549130047803,0.6740208332614984,0.9547738693467337
0.003399394487152612,0.6661247444115345,0.9597989949748744
0.002949211836710849,0.6574304264922401,0.964824120603015
0.0025278958600378704,0.6468775968305306,0.9698492462311558
0.00211001639214689,0.633947320329498,0.9748743718592965
0.0015904162643087633,0.6159311350713924,0.9798994974874372
0.0010866240768678285,0.5897723236913698,0.9849246231155779
0.0006013890368496837,0.5413699886558374,0.9899497487437187
0.00012577622142113384,0.38791519117844814,0.9949748743718593
0.0,0.0,1.0
